{
    "hasWindows": true,
    "components": ["networkAgent"],
    "panel": { "left": [],
               "center": [],
               "right": ["dwellClick", "a11y", "keyboard", "quickSettings"]
    }
}